1 Min. Dist Access Analysis | centroid-access-tutorial.utf8
…
Aside: To find the most appropriate projection for your data, do a Google Search for which projection works well - for state level data, each state has a State Plane projection with a specific code, known as the EPSG. I use epsg.io to check projections - here’s the New York State Plane page.

Use the st_transform function to change the projection of the data. Notice how the values in geometry go from being relatively small (unprojected, lat/long) to very large (projected, in US feet).

chicago_zips <- st_transform(chicago_zips, 3435)

chicago_zips

## Simple feature collection with 85 features and 9 fields
## geometry type:  MULTIPOLYGON
## dimension:      XY
## bbox:           xmin: 1058388 ymin: 1791133 xmax: 1205317 ymax: 1966816
## CRS:            EPSG:3435
## # A tibble: 85 x 10
##    ZCTA5CE10 GEOID10 CLASSFP10 MTFCC10 FUNCSTAT10 ALAND10 AWATER10 INTPTLAT10
##  * <chr>     <chr>   <chr>     <chr>   <chr>      <chr>   <chr>    <chr>     
##  1 60501     60501   B5        G6350   S          125322… 974360   +41.78022…
##  2 60007     60007   B5        G6350   S          364933… 917560   +42.00860…
##  3 60651     60651   B5        G6350   S          9052862 0        +41.90209…
##  4 60652     60652   B5        G6350   S          129878… 0        +41.74793…
##  5 60653     60653   B5        G6350   S          6041418 1696670  +41.81996…
##  6 60654     60654   B5        G6350   S          1464813 113471   +41.89182…
##  7 60655     60655   B5        G6350   S          114080… 0        +41.69477…
##  8 60656     60656   B5        G6350   S          8465226 0        +41.97428…
##  9 60657     60657   B5        G6350   S          5888324 2025836  +41.94029…
## 10 60659     60659   B5        G6350   S          5251086 2818     +41.99148…
## # … with 75 more rows, and 2 more variables: INTPTLON10 <chr>,
## #   geometry <MULTIPOLYGON [US_survey_foot]>
Then, we will calculate the centroids:

chicago_centroids <- st_centroid(chicago_zips)

## Warning in st_centroid.sf(chicago_zips): st_centroid assumes attributes are
## constant over geometries of x

chicago_centroids

## Simple feature collection with 85 features and 9 fields
## geometry type:  POINT
## dimension:      XY
## bbox:           xmin: 1076716 ymin: 1802621 xmax: 1198093 ymax: 1956017
## CRS:            EPSG:3435
## # A tibble: 85 x 10
##    ZCTA5CE10 GEOID10 CLASSFP10 MTFCC10 FUNCSTAT10 ALAND10 AWATER10 INTPTLAT10
##  * <chr>     <chr>   <chr>     <chr>   <chr>      <chr>   <chr>    <chr>     
##  1 60501     60501   B5        G6350   S          125322… 974360   +41.78022…
##  2 60007     60007   B5        G6350   S          364933… 917560   +42.00860…
##  3 60651     60651   B5        G6350   S          9052862 0        +41.90209…
##  4 60652     60652   B5        G6350   S          129878… 0        +41.74793…
##  5 60653     60653   B5        G6350   S          6041418 1696670  +41.81996…
##  6 60654     60654   B5        G6350   S          1464813 113471   +41.89182…
##  7 60655     60655   B5        G6350   S          114080… 0        +41.69477…
##  8 60656     60656   B5        G6350   S          8465226 0        +41.97428…
##  9 60657     60657   B5        G6350   S          5888324 2025836  +41.94029…
## 10 60659     60659   B5        G6350   S          5251086 2818     +41.99148…
## # … with 75 more rows, and 2 more variables: INTPTLON10 <chr>, geometry <POINT
## #   [US_survey_foot]>
…
