Geocoding Resource Locations | geocodingAddress-tutorial.utf8
…
0.0.6 Batch Geocoding

Now we are ready to geocode the addresses. The “tibble” data structure below shows us the address, latitude, longitude and also the geocoding service used to get the coordinates. Note that geocoding takes a bit of time, so patience is required.

geoCodedClinics <- methadoneClinics %>% 
                            geocode(methadoneClinics, address = 'fullAdd', 
                                    lat = latitude, long = longitude, method = 'cascade')
geoCodedClinics

## # A tibble: 27 x 10
##        X Name    Address City  State   Zip fullAdd latitude longitude geo_method
##    <int> <fct>   <fct>   <fct> <fct> <int> <chr>      <dbl>     <dbl> <chr>     
##  1     1 "Chica… 4453 N… Chic… IL    60640 4453 N…     42.0     -87.7 osm       
##  2     2 "Sunda… 4545 N… Chic… IL    60640 4545 N…     42.0     -87.7 osm       
##  3     3 "Soft … 3934 N… Chic… IL    60613 3934 N…     42.0     -87.7 census    
##  4     4 "PDSSC… 2260 N… Chic… IL    60614 2260 N…     41.9     -87.7 census    
##  5     5 "Cente… 609 N.… Chic… IL    60654 609 N.…     41.9     -87.6 census    
##  6     6 "Famil… 310 W.… Chic… IL    60654 310 W.…     41.9     -87.6 census    
##  7     7 "A Rin… 3809 W… Chic… IL    60651 3809 W…     41.9     -87.7 census    
##  8     8 "*"     140 N.… Chic… IL    60607 140 N.…     41.9     -87.7 osm       
##  9     9 "Healt… 210 N.… Chic… IL    60607 210 N.…     41.9     -87.7 census    
## 10    10 "Speci… 2630 S… Chic… IL    60616 2630 S…     41.8     -87.6 census    
## # … with 17 more rows

The code worked for all addresses except the first two. We already resolved the 4545 North Broadway St.address above but here in the dataframe we get NAs. It is pointing to some issue with the string input. These were missed in the previous quality check, but give us a clue to the types of errors we could see if geocoding more addresses. Unfortunately, such quirks are common across geocoding services in R and we just have to handle them. We manually update the full address strings to get apprpriate coordinates.

methadoneClinics[1,'fullAdd'] <- '4453 North Broadway St.,Chicago IL 60640'
methadoneClinics[2,'fullAdd'] <- '4545 North Broadway St.,Chicago IL 60640'

Now we can geocode the full suite of addresses with success:

#geoCodedClinics <- methadoneClinics %>% 
#                            geocode(methadoneClinics, address = 'fullAdd', 
#                                    lat = latitude, long = longitude, method = 'cascade')
geoCodedClinics

## # A tibble: 27 x 10
##        X Name    Address City  State   Zip fullAdd latitude longitude geo_method
##    <int> <fct>   <fct>   <fct> <fct> <int> <chr>      <dbl>     <dbl> <chr>     
##  1     1 "Chica… 4453 N… Chic… IL    60640 4453 N…     42.0     -87.7 osm       
##  2     2 "Sunda… 4545 N… Chic… IL    60640 4545 N…     42.0     -87.7 osm       
##  3     3 "Soft … 3934 N… Chic… IL    60613 3934 N…     42.0     -87.7 census    
##  4     4 "PDSSC… 2260 N… Chic… IL    60614 2260 N…     41.9     -87.7 census    
##  5     5 "Cente… 609 N.… Chic… IL    60654 609 N.…     41.9     -87.6 census    
##  6     6 "Famil… 310 W.… Chic… IL    60654 310 W.…     41.9     -87.6 census    
##  7     7 "A Rin… 3809 W… Chic… IL    60651 3809 W…     41.9     -87.7 census    
##  8     8 "*"     140 N.… Chic… IL    60607 140 N.…     41.9     -87.7 osm       
##  9     9 "Healt… 210 N.… Chic… IL    60607 210 N.…     41.9     -87.7 census    
## 10    10 "Speci… 2630 S… Chic… IL    60616 2630 S…     41.8     -87.6 census    
## # … with 17 more rows
…
