Calculate Minimum Distance Access Metric | Opioid Environment Toolkit
…
Aside: To find the most appropriate projection for your data, do a Google Search for which projection works well - for state level data, each state has a State Plane projection with a specific code, known as the EPSG. I use epsg.io to check projections - here’s the New York State Plane page.

Use the st_transform function to change the projection of the data. Notice how the values in geometry go from being relatively small (unprojected, lat/long) to very large (projected, in US feet).

chicago_zips <- st_transform(chicago_zips, 3435)

chicago_zips

## Simple feature collection with 85 features and 9 fields
## geometry type:  MULTIPOLYGON
## dimension:      XY
## bbox:           xmin: 1058388 ymin: 1791133 xmax: 1205317 ymax: 1966816
## projected CRS:  NAD83 / Illinois East (ftUS)
## # A tibble: 85 x 10
##    ZCTA5CE10 GEOID10 CLASSFP10 MTFCC10 FUNCSTAT10 ALAND10  AWATER10 INTPTLAT10 INTPTLON10                       geometry
##  * <chr>     <chr>   <chr>     <chr>   <chr>      <chr>    <chr>    <chr>      <chr>      <MULTIPOLYGON [US_survey_foot>
##  1 60501     60501   B5        G6350   S          12532295 974360   +41.78022… -087.8232… (((1112613 1853447, 1112726 1…
##  2 60007     60007   B5        G6350   S          36493383 917560   +42.00860… -087.9973… (((1058389 1942598, 1058390 1…
##  3 60651     60651   B5        G6350   S          9052862  0        +41.90209… -087.7408… (((1136069 1909833, 1136235 1…
##  4 60652     60652   B5        G6350   S          12987857 0        +41.74793… -087.7147… (((1145542 1859745, 1145607 1…
##  5 60653     60653   B5        G6350   S          6041418  1696670  +41.81996… -087.6059… (((1177007 1875855, 1177096 1…
##  6 60654     60654   B5        G6350   S          1464813  113471   +41.89182… -087.6383… (((1170904 1905583, 1170932 1…
##  7 60655     60655   B5        G6350   S          11408010 0        +41.69477… -087.7037… (((1146378 1830511, 1146444 1…
##  8 60656     60656   B5        G6350   S          8465226  0        +41.97428… -087.8271… (((1110359 1933204, 1110389 1…
##  9 60657     60657   B5        G6350   S          5888324  2025836  +41.94029… -087.6468… (((1162394 1923242, 1162526 1…
## 10 60659     60659   B5        G6350   S          5251086  2818     +41.99148… -087.7039… (((1148555 1941516, 1148713 1…
## # … with 75 more rows

Then, we will calculate the centroids:

chicago_centroids <- st_centroid(chicago_zips)

## Warning in st_centroid.sf(chicago_zips): st_centroid assumes attributes are constant over geometries of x

chicago_centroids

## Simple feature collection with 85 features and 9 fields
## geometry type:  POINT
## dimension:      XY
## bbox:           xmin: 1076716 ymin: 1802621 xmax: 1198093 ymax: 1956017
## projected CRS:  NAD83 / Illinois East (ftUS)
## # A tibble: 85 x 10
##    ZCTA5CE10 GEOID10 CLASSFP10 MTFCC10 FUNCSTAT10 ALAND10  AWATER10 INTPTLAT10  INTPTLON10                   geometry
##  * <chr>     <chr>   <chr>     <chr>   <chr>      <chr>    <chr>    <chr>       <chr>        <POINT [US_survey_foot]>
##  1 60501     60501   B5        G6350   S          12532295 974360   +41.7802209 -087.8232440        (1123181 1862885)
##  2 60007     60007   B5        G6350   S          36493383 917560   +42.0086000 -087.9973398        (1076716 1945541)
##  3 60651     60651   B5        G6350   S          9052862  0        +41.9020934 -087.7408565        (1145540 1907470)
##  4 60652     60652   B5        G6350   S          12987857 0        +41.7479319 -087.7147951        (1153039 1851344)
##  5 60653     60653   B5        G6350   S          6041418  1696670  +41.8199645 -087.6059654        (1182494 1877789)
##  6 60654     60654   B5        G6350   S          1464813  113471   +41.8918225 -087.6383036        (1173771 1904104)
##  7 60655     60655   B5        G6350   S          11408010 0        +41.6947762 -087.7037764        (1156187 1831997)
##  8 60656     60656   B5        G6350   S          8465226  0        +41.9742800 -087.8271283        (1121899 1933624)
##  9 60657     60657   B5        G6350   S          5888324  2025836  +41.9402931 -087.6468569        (1170365 1921589)
## 10 60659     60659   B5        G6350   S          5251086  2818     +41.9914885 -087.7039859        (1155320 1939992)
## # … with 75 more rows
…
