Geocoding and Visualizing Point Data | Opioid Environment Toolkit
…
Then geocode the addresses. Tibble below includes the address, latitude, longitude and also the geocoding service used to get the coordinates. Please note geocoding takes a bit of time.

geoCodedClinics <- methadoneClinics %>% 
                            geocode(methadoneClinics, address = 'fullAdd', 
                                    lat = latitude, long = longitude, method = 'cascade')
geoCodedClinics

## # A tibble: 27 x 10
##        X Name  Address City  State   Zip fullAdd
##    <int> <chr> <chr>   <chr> <chr> <int> <chr>  
##  1     1 "Chi… 4453 N… Chic… IL    60640 4453 N…
##  2     2 "Sun… 4545 N… Chic… IL    60640 4545 N…
##  3     3 "Sof… 3934 N… Chic… IL    60613 3934 N…
##  4     4 "PDS… 2260 N… Chic… IL    60614 2260 N…
##  5     5 "Cen… 609 N.… Chic… IL    60654 609 N.…
##  6     6 "Fam… 310 W.… Chic… IL    60654 310 W.…
##  7     7 "A R… 3809 W… Chic… IL    60651 3809 W…
##  8     8 "*"   140 N.… Chic… IL    60607 140 N.…
##  9     9 "Hea… 210 N.… Chic… IL    60607 210 N.…
## 10    10 "Spe… 2630 S… Chic… IL    60616 2630 S…
## # … with 17 more rows, and 3 more variables:
## #   latitude <dbl>, longitude <dbl>,
## #   geo_method <chr>

The code worked for all addresses except the first two. We already resolved the 4545 North Broadway St.address above but here in the dataframe we get NAs. It is pointing to some issue with the string input. Unfortunately, such quirks are common across geocoding services in R and we just have to handle them. We manually update the full address strings to get apprpriate coordinates.

methadoneClinics[1,'fullAdd'] <- '4453 North Broadway St.,Chicago IL 60640'
methadoneClinics[2,'fullAdd'] <- '4545 North Broadway St.,Chicago IL 60640'
geoCodedClinics <- methadoneClinics %>% 
                            geocode(methadoneClinics, address = 'fullAdd', 
                                    lat = latitude, long = longitude, method = 'cascade')
geoCodedClinics

## # A tibble: 27 x 10
##        X Name  Address City  State   Zip fullAdd
##    <int> <chr> <chr>   <chr> <chr> <int> <chr>  
##  1     1 "Chi… 4453 N… Chic… IL    60640 4453 N…
##  2     2 "Sun… 4545 N… Chic… IL    60640 4545 N…
##  3     3 "Sof… 3934 N… Chic… IL    60613 3934 N…
##  4     4 "PDS… 2260 N… Chic… IL    60614 2260 N…
##  5     5 "Cen… 609 N.… Chic… IL    60654 609 N.…
##  6     6 "Fam… 310 W.… Chic… IL    60654 310 W.…
##  7     7 "A R… 3809 W… Chic… IL    60651 3809 W…
##  8     8 "*"   140 N.… Chic… IL    60607 140 N.…
##  9     9 "Hea… 210 N.… Chic… IL    60607 210 N.…
## 10    10 "Spe… 2630 S… Chic… IL    60616 2630 S…
## # … with 17 more rows, and 3 more variables:
## #   latitude <dbl>, longitude <dbl>,
## #   geo_method <chr>
…
